<?xml version="1.0" standalone="no"?>
<!DOCTYPE svg PUBLIC "-//W3C//DTD SVG 20010904//EN" "http://www.w3.org/TR/2001/REC-SVG-20010904/DTD/svg10.dtd">
<!-- Created using Krita: http://krita.org -->
<svg xmlns="http://www.w3.org/2000/svg" 
    xmlns:xlink="http://www.w3.org/1999/xlink"
    xmlns:krita="http://krita.org/namespaces/svg/krita"
    xmlns:sodipodi="http://sodipodi.sourceforge.net/DTD/sodipodi-0.dtd"
    width="1000pt"
    height="1000pt"
    viewBox="0 0 1000 1000">
<defs/>
<path id="shape0" transform="translate(11.5037396908388, 10.4999993483912)" fill="#ffffff" fill-rule="evenodd" stroke="#000000" stroke-width="30" stroke-linecap="square" stroke-linejoin="miter" stroke-miterlimit="2" d="M976.996 245.751L489.229 0L0 245.729L0 709.774L489.351 978.937L976.931 709.65Z"/><g id="group0" transform="matrix(0.707106781186552 0.707106781186552 -0.707106781186552 0.707106781186552 279.661469069922 262.020225720614)" fill="none">
  <circle id="shape1" r="75.5" cx="75.5" cy="75.5" fill="#000000" fill-rule="evenodd"/>
  <circle id="shape2" transform="translate(26.6794550329343, 25.1022906532775)" r="48.3311054540553" cx="48.3311054540553" cy="48.3311054540553" fill="#ffffff" fill-rule="evenodd"/>
  <circle id="shape01" transform="translate(48.4340186113813, 16.0520381060364)" r="39.3650886092209" cx="39.3650886092209" cy="39.3650886092209" fill="#000000" fill-rule="evenodd"/>
 </g><g id="group01" transform="matrix(-0.707106781186554 -0.707106781186554 0.707106781186554 -0.707106781186554 735.435671803427 475.730047118031)" fill="none">
  <circle id="shape01" r="75.5" cx="75.5" cy="75.5" fill="#000000" fill-rule="evenodd"/>
  <circle id="shape11" transform="translate(26.6794550329344, 25.1022906532775)" r="48.3311054540553" cx="48.3311054540553" cy="48.3311054540553" fill="#ffffff" fill-rule="evenodd"/>
  <circle id="shape02" transform="translate(48.4340186113812, 16.0520381060363)" r="39.3650886092209" cx="39.3650886092209" cy="39.3650886092209" fill="#000000" fill-rule="evenodd"/>
 </g><path id="shape03" transform="matrix(1.11439368849318 0 0 1.02410864598468 103.794627955351 534.999965557826)" fill="#ffffff" fill-rule="evenodd" stroke="#000000" stroke-width="30" stroke-linecap="butt" stroke-linejoin="miter" stroke-miterlimit="2" d="M0 0.50636C79.0081 0.450326 197.52 0.366275 355.536 0.254207C514.839 0.141226 634.317 0.0564904 713.968 0L714.474 162.035L357.997 358.503L0 161.529L0 0.50636"/><path id="shape04" transform="matrix(1.11439367249476 0 0 1.02410863128241 115.157113954691 542.190034455977)" fill="none" stroke="#000000" stroke-width="20" stroke-linecap="butt" stroke-linejoin="bevel" d="M0 144.957L110.309 0.707107L195.161 254.558L344.361 0L484.368 258.094L585.484 3.53553L692.258 147.785"/>
</svg>
